<?xml version="1.0" encoding="UTF-8"?>
<svg width="512px" height="512px" viewBox="0 0 512 512" version="1.1" xmlns="http://www.w3.org/2000/svg" xmlns:xlink="http://www.w3.org/1999/xlink">
    <title>ID_ICON_Mark_C@1x</title>
    <g id="1-Highlights" stroke="none" stroke-width="1" fill="none" fill-rule="evenodd">
        <g id="Artboard" transform="translate(-2654.000000, -1149.000000)" fill-rule="nonzero">
            <g id="ID_ICON_Mark_C" transform="translate(2654.000000, 1149.000000)">
                <rect id="Rectangle-Copy-8" fill="#D8D8D8" x="0" y="0" width="512" height="512" rx="40"></rect>
                <rect id="Rectangle-Copy-9" fill="#23682E" x="0" y="0" width="512" height="512" rx="40"></rect>
                <path d="M256.704646,139.622155 L257.825234,138.40831 C301.43112,91.4643571 343.62291,67.659113 366.171828,81.7492408 C387.904819,95.3295212 385.996972,140.741908 365.168656,197.525677 C426.207835,209.71424 467,231.814042 467,257.054212 C467,282.179289 426.579002,304.192573 366.001936,316.414538 C385.922275,371.253857 387.529741,414.978958 366.282441,428.514981 C343.738855,442.876829 301.267679,419.557978 257.225727,373.100284 C213.435515,420.41641 170.998429,444.466706 148.360172,430.320754 C126.930121,416.929771 128.486433,372.587925 148.503396,316.912193 C86.5382352,304.796288 45,282.524151 45,257.054212 C45,231.787653 85.8775097,209.668031 147.023326,197.488349 C125.876508,141.000006 123.736189,95.6825874 145.437258,81.8574821 C168.357823,67.2554716 211.87802,91.6049101 256.704646,139.622155 Z M166.897941,320.115 L166.739172,320.771416 C156.265372,364.440082 159.142473,398.14277 177.344149,407.902061 C195.304684,417.531871 224.092511,401.65373 253.725353,369.361188 C241.665551,356.329517 229.524844,341.595947 217.678134,325.458893 C199.868124,324.38062 182.841148,322.566578 166.897941,320.115 Z M346.462592,319.904508 L344.140431,320.261896 C328.974946,322.563229 312.839616,324.289039 295.992055,325.354414 C284.416824,341.455603 272.545384,356.188046 260.736309,369.262113 C289.798286,400.736229 317.947841,416.259344 335.687735,407.086809 C354.05965,397.587365 356.998963,363.807899 346.462592,319.904508 Z M287.390467,325.837421 L286.874721,325.862705 C276.797055,326.349736 266.487887,326.60195 256,326.60195 C246.18231,326.60195 236.521229,326.38094 227.060053,325.95319 C236.927609,340.757193 247.128489,354.039817 257.264552,365.432017 C267.385656,353.980102 277.559907,340.661768 287.390467,325.837421 Z M252.250093,197.441056 C240.644983,198.268247 229.325238,199.447962 218.389444,200.939371 C212.990616,209.684117 207.732178,218.874334 202.684451,228.445217 C197.71297,237.871531 193.159401,247.262252 189.036427,256.527542 C193.114517,265.742927 197.618183,275.088743 202.535894,284.475293 C208.56231,295.978055 214.895007,306.93978 221.413246,317.249289 C233.983678,317.288121 247.023065,316.852221 260.372725,315.900816 C272.64245,315.026252 284.593189,313.75763 296.10843,312.143205 C301.130788,303.922455 306.027534,295.318006 310.740585,286.381696 C315.905611,276.588404 320.619554,266.833529 324.868187,257.217818 C320.690624,247.720415 316.058685,238.081849 310.986235,228.399946 C305.051277,217.071753 298.819265,206.268299 292.405522,196.095779 C279.465138,196.026644 266.022739,196.459505 252.250093,197.441056 Z M182.600423,271.749165 L182.222755,272.697881 C176.527275,287.022503 171.920318,300.90437 168.451578,313.991563 C181.875971,315.699283 196.383505,316.768615 211.674392,317.121754 C206.292152,309.508918 200.985474,301.609817 195.790177,293.454834 C191.170504,286.203401 186.771417,278.957658 182.600423,271.749165 Z M153.854454,214.567761 L152.511382,214.973132 C106.627276,228.971367 77.2828868,249.050623 78.6735254,269.331747 C79.9780593,288.356802 108.041186,303.369403 150.596764,311.225893 C157.018546,294.185285 165.109727,276.171707 174.746227,257.725234 C166.770596,243.001005 159.785307,228.523759 153.854454,214.567761 Z M330.684369,271.075809 L329.370364,273.385568 C325.540867,280.084525 321.518098,286.815406 317.307806,293.553282 C313.671814,299.372085 309.979203,305.062902 306.24278,310.615364 C318.80086,308.588521 330.771548,306.148344 341.994075,303.362114 C338.887223,292.971631 335.109879,282.155574 330.684369,271.075809 Z M363.358516,202.365209 L362.743015,203.968215 C356.307966,220.635316 348.304044,238.189942 338.845561,256.136602 C346.585926,270.669542 353.349783,284.940394 359.076128,298.68193 C405.554221,284.671292 435.350347,264.44316 433.949292,244.010124 C432.658423,225.184347 405.16659,210.287407 363.358516,202.365209 Z M207.564028,202.534854 L206.969109,202.631447 C194.557579,204.619266 182.714433,207.010652 171.595595,209.741027 C174.744448,220.242765 178.576273,231.176801 183.068949,242.377009 C187.517433,234.461638 192.239383,226.494078 197.224194,218.516713 C200.624773,213.07465 204.074876,207.744536 207.564028,202.534854 Z M302.15231,196.249441 L302.917194,197.34919 C307.31646,203.68864 311.660592,210.216752 315.929522,216.91763 C321.314829,225.370869 326.400377,233.816377 331.174268,242.204155 C337.076252,227.363645 341.811807,212.998747 345.324329,199.499348 C331.930812,197.750477 317.439125,196.641125 302.15231,196.249441 Z M261.458508,143.567237 L260.893127,144.173627 C272.961257,157.474765 285.080414,172.452143 296.875713,188.808785 C314.332208,189.94 331.017336,191.779077 346.642783,194.232853 C357.167466,150.478618 354.307336,116.697426 336.080886,106.924852 C318.475911,97.4856799 290.468089,112.55451 261.458508,143.567237 Z M177.834394,105.78843 C159.328419,115.357192 156.481091,149.561614 167.292343,193.933439 C182.957741,191.537074 199.665469,189.756086 217.129544,188.684126 C228.867603,172.211098 240.92672,157.137169 252.930516,143.768579 C223.817074,112.190474 195.603656,96.6007104 177.834394,105.78843 Z M257.074016,148.364771 L257.026784,148.420534 C246.804649,159.881411 236.517831,173.257641 226.574366,188.177515 C236.188969,187.735151 246.013464,187.506474 256,187.506474 C266.654113,187.506474 277.123797,187.766746 287.353719,188.269054 C277.474981,173.321907 267.247284,159.896758 257.074016,148.364771 Z" id="Curvalux_Mark-1-Copy-2" stroke="#FFFFFF" stroke-width="2" fill="#FFFFFF"></path>
            </g>
        </g>
    </g>
</svg>